@relation dados

@attribute hora_aproximada numeric
@attribute natureza {abordagem_a_veiculo,agressao,ameaca,apoio_policial,assistencia_policial,ato_de_suspeicao,atos_libidinosos,atrito_verbal,consumo_de_entorpecentes,danos_ao_patrimônio_público,desordem,furto,homicidio,lesao_corporal,ocorrencia_de_trânsito,outro,porte_ilegal_de_arma,prestacao_de_socorro,roubo,solicitacao_de_policiamento,tentativa_de_assalto,tentativa_de_homicidio,tentativa_de_suicidio,trafico,vias_de_fato}
@attribute zona_de_natal {oeste,sul,leste,norte}
@attribute bairro {alecrim,bairro_nordeste,barro_vermelho,bom_pastor,candelaria,capim_macio,cidade_alta,cidade_da_esperanca,cidade_nova,dix-sept_rosado,felipe_camarao,guarapes,igapo,lagoa_azul,lagoa_nova,lagoa_seca,mae_luiza,mirassol,nao_informado,neopolis,nossa_senhora_da_apresentacao,nossa_senhora_de_nazare,nova_descoberta,nova_parnamirim,pajucara,parnamirim,petropolis,pirangi,pitimbu,planalto,ponta_negra,potengi,praia_do_meio,quintas,redinha,ribeira,rocas,santos_reis,tirol}
@attribute escola {acrisio_freire,adventista,alberto_torres,aldo_fernandes_de_melo,alferes_tiradentes,almeida,amadeu_araujo,ana_julia,angelica_moura,anisio_teixeira,antonio,antonio_fagundes,antonio_pinto,arco_iris,arnaldo_arsenio,arnaldo_monteiro,ary_parreiras,ascendino_de_almeida,atheneu,augusto_severo,barca,belem_camara,berilo_wanderley,brigadeiro_eduardo_gomes,cade,caic_lagoa_nova,carmem_maria_reis,cavalcante,cdf,celestino_pimentel,chico_santeiro,clara_camarao,claudete_maciel,contemporaneo,cpu,crisan_simenea,dalva_de_oliveira,desconhecida,dinarte_mariz,djalma_aranha_marinho,djalma_maranhao,dom_bosco,dulce_wanderley,edgar_barbosa,elizabeth_de_fatima_araujo_guilhermino,emanuel_bezerra,espaco_educacao,estela_wanderley,estrela_do_leste,expansivo,faculdade_estacio,ferreira_itajuba,floriano_cavalcante,francinete_g._maia,francisca_de_oliveira,francisca_ferreira,francisco_ivo,fundacao_bradesco,gondim,graca_mota,gurgel,hipocrates,ifrn_norte,imperial_marinheiro,instituto_brasil,isabel_godim,jean_mermoz,jeronimo_gueiros,jesiel_figueiredo,joao_fernandes_machado,joao_tiburcio,joao_xxiii,joaquim_honorio,jose_adelino_dantas,jose_alves_landin,jose_do_patrocinio,jose_fernandes_machado,jose_sotero,josefa_botelho,josefa_sampaio,josino_macedo,judite_bezerra,juvenal_lamartine,lauro_de_castro,lia_campos,lourdes_guilherme,luis_soares,luiz_antonio,luiz_gonzaga,luiz_maranhao,luiz_soares,luiz_wanderley,maia_neto,manoel_bezerra,manoel_dantas,manoel_villaca,marcio_marinho,mareci_gomes,maria_alexandrina_sampaio,maria_de_lourdes_martins,maria_ilda,maria_lidia,maria_luiza,maria_queiroz,mario_lira,maristela,mariz,mascarenhas_homem,menino_jesus,mirian_coeli,monsenhor_jose_alves_landim,nestor_lima,neves,olda_marinho,oto_de_brito_guerra,padre_miguelinho,padre_monte,palmira_de_souza,passo_a_passo,paulino,paulo_pinheiro_de_viveiros,people_formacao_completa,pinheiro,raimundo_soares,reginaldo_ferreira_neto,regulo_tinoco,reis_magos,roberto_klause,s._cecilia,salesiano,santos_reis,saturnina_alves_de_lucena,severino_bezerra_de_melo,silvino_bezerra,soldado_luiz_gonzaga,stela_goncalves,stella_wanderley,tania_almeida,terezinha_paulino,tiradentes,ulisses_de_gois,uniao_do_povo,unp,varela_barca,verissimo_de_melo,vigario_bartolomeu,vilma_dutra,vovo_geogina,walfredo_gurgel,walter_duarte_pereira,winston_churchill,xv_de_outubro,zeneide_iginio_de_moura,zila_mamede,zuza}
@attribute publico_atendido {estadual,federal,municipal,particular,via_publica}
@attribute ambiente {interno,externo}
@attribute class {cluster1,cluster2,cluster3,cluster4,cluster5,cluster6,cluster7,cluster8,cluster9,cluster10,cluster11,cluster12,cluster13,cluster14,cluster15,cluster16,cluster17,cluster18,cluster19}

@data
0.4375,outro,leste,alecrim,ary_parreiras,estadual,interno,cluster1
0.625,trafico,leste,alecrim,ary_parreiras,estadual,externo,cluster1
0.4375,desordem,leste,alecrim,ary_parreiras,estadual,externo,cluster1
0.125,vias_de_fato,leste,alecrim,joao_tiburcio,estadual,interno,cluster1
0.875,outro,leste,alecrim,joao_tiburcio,estadual,externo,cluster1
0.875,outro,leste,alecrim,joao_tiburcio,estadual,externo,cluster1
0.875,desordem,oeste,alecrim,joao_tiburcio,estadual,externo,cluster1
0.4375,desordem,leste,alecrim,joao_tiburcio,estadual,externo,cluster1
0.125,ameaca,leste,alecrim,joao_xxiii,municipal,externo,cluster1
0.5,trafico,oeste,alecrim,joao_xxiii,municipal,externo,cluster1
1,homicidio,leste,alecrim,joao_xxiii,estadual,externo,cluster1
0.375,assistencia_policial,leste,alecrim,joaquim_honorio,municipal,interno,cluster1
0.5625,consumo_de_entorpecentes,leste,alecrim,juvenal_lamartine,municipal,externo,cluster1
0.5625,ameaca,leste,alecrim,padre_miguelinho,estadual,externo,cluster1
0.6875,vias_de_fato,leste,alecrim,padre_miguelinho,estadual,externo,cluster1
0.8125,roubo,leste,alecrim,padre_miguelinho,estadual,externo,cluster1
0.4375,vias_de_fato,leste,alecrim,padre_miguelinho,estadual,externo,cluster1
0.25,roubo,leste,alecrim,reis_magos,particular,externo,cluster1
0.1875,lesao_corporal,leste,alecrim,ulisses_de_gois,estadual,interno,cluster1
0.125,furto,leste,alecrim,desconhecida,particular,externo,cluster1
0.4375,ameaca,leste,alecrim,desconhecida,via_publica,externo,cluster1
0.4375,desordem,leste,alecrim,desconhecida,particular,externo,cluster1
0.4375,apoio_policial,oeste,alecrim,desconhecida,via_publica,externo,cluster1
0.4375,apoio_policial,oeste,alecrim,desconhecida,via_publica,externo,cluster1
0.625,vias_de_fato,leste,alecrim,desconhecida,via_publica,externo,cluster1
0.625,assistencia_policial,leste,alecrim,desconhecida,via_publica,externo,cluster1
0.625,ameaca,leste,alecrim,desconhecida,via_publica,externo,cluster1
0.6875,atrito_verbal,leste,alecrim,desconhecida,via_publica,externo,cluster1
0.875,porte_ilegal_de_arma,leste,alecrim,desconhecida,via_publica,externo,cluster1
0.875,outro,leste,alecrim,desconhecida,via_publica,externo,cluster1
0.875,roubo,leste,alecrim,desconhecida,via_publica,externo,cluster4
0.9375,roubo,leste,alecrim,desconhecida,via_publica,externo,cluster4
0.9375,roubo,leste,alecrim,desconhecida,via_publica,externo,cluster4
0.9375,roubo,leste,alecrim,desconhecida,via_publica,externo,cluster4
1,assistencia_policial,leste,alecrim,desconhecida,via_publica,externo,cluster1
0.25,ameaca,oeste,bairro_nordeste,chico_santeiro,municipal,interno,cluster1
0.625,furto,oeste,bairro_nordeste,chico_santeiro,municipal,externo,cluster1
0.4375,consumo_de_entorpecentes,oeste,bairro_nordeste,imperial_marinheiro,estadual,externo,cluster1
0.5,ato_de_suspeicao,oeste,bairro_nordeste,imperial_marinheiro,estadual,externo,cluster1
0.8125,agressao,oeste,bairro_nordeste,imperial_marinheiro,estadual,externo,cluster1
0.5625,ameaca,norte,bairro_nordeste,desconhecida,via_publica,externo,cluster1
0.625,consumo_de_entorpecentes,oeste,bairro_nordeste,desconhecida,via_publica,externo,cluster1
0.6875,roubo,oeste,bairro_nordeste,desconhecida,via_publica,externo,cluster1
0.8125,ameaca,oeste,bairro_nordeste,desconhecida,via_publica,externo,cluster1
0.125,atrito_verbal,leste,barro_vermelho,adventista,particular,externo,cluster1
0.3125,agressao,leste,barro_vermelho,jeronimo_gueiros,estadual,externo,cluster1
0.4375,desordem,leste,barro_vermelho,jeronimo_gueiros,estadual,externo,cluster1
0.625,roubo,leste,barro_vermelho,maristela,particular,externo,cluster1
0.375,furto,leste,barro_vermelho,neves,particular,externo,cluster1
0.1875,vias_de_fato,leste,barro_vermelho,tiradentes,estadual,externo,cluster1
0.1875,porte_ilegal_de_arma,leste,barro_vermelho,tiradentes,estadual,interno,cluster1
0.3125,roubo,leste,barro_vermelho,tiradentes,estadual,externo,cluster1
0.4375,furto,leste,barro_vermelho,desconhecida,via_publica,externo,cluster1
0.5,ato_de_suspeicao,leste,barro_vermelho,desconhecida,via_publica,externo,cluster1
0.25,furto,oeste,bom_pastor,francisca_ferreira,municipal,interno,cluster1
0.25,furto,oeste,bom_pastor,francisca_ferreira,municipal,interno,cluster1
0.3125,ato_de_suspeicao,oeste,bom_pastor,francisca_ferreira,municipal,externo,cluster1
0.4375,desordem,oeste,bom_pastor,francisca_ferreira,municipal,externo,cluster1
0.8125,vias_de_fato,oeste,bom_pastor,francisca_ferreira,municipal,interno,cluster1
0.8125,ameaca,oeste,bom_pastor,francisca_ferreira,municipal,interno,cluster1
0.875,vias_de_fato,oeste,bom_pastor,francisca_ferreira,municipal,interno,cluster1
0.9375,vias_de_fato,oeste,bom_pastor,francisca_ferreira,estadual,externo,cluster1
0.5,ato_de_suspeicao,oeste,bom_pastor,jean_mermoz,estadual,externo,cluster1
0.625,vias_de_fato,oeste,bom_pastor,jean_mermoz,estadual,interno,cluster1
0.6875,atos_libidinosos,oeste,bom_pastor,jean_mermoz,estadual,externo,cluster1
0.875,ameaca,oeste,bom_pastor,jean_mermoz,estadual,interno,cluster19
0.875,ameaca,oeste,bom_pastor,jean_mermoz,estadual,interno,cluster19
0.875,ameaca,oeste,bom_pastor,jean_mermoz,estadual,interno,cluster19
0.9375,desordem,oeste,bom_pastor,jean_mermoz,estadual,interno,cluster1
1,roubo,oeste,bom_pastor,jean_mermoz,estadual,externo,cluster1
0.625,furto,oeste,bom_pastor,marcio_marinho,estadual,interno,cluster1
0.5625,ameaca,oeste,bom_pastor,maria_ilda,estadual,externo,cluster1
0.5625,outro,oeste,bom_pastor,soldado_luiz_gonzaga,estadual,interno,cluster1
0.0625,roubo,oeste,bom_pastor,desconhecida,via_publica,externo,cluster1
0.1875,outro,oeste,bom_pastor,desconhecida,via_publica,externo,cluster1
0.25,furto,oeste,bom_pastor,desconhecida,via_publica,externo,cluster1
0.4375,apoio_policial,oeste,bom_pastor,desconhecida,via_publica,externo,cluster1
0.5,roubo,oeste,bom_pastor,desconhecida,via_publica,externo,cluster1
0.5625,ato_de_suspeicao,oeste,bom_pastor,desconhecida,via_publica,externo,cluster1
0.6875,outro,oeste,bom_pastor,desconhecida,via_publica,externo,cluster1
0.875,agressao,oeste,bom_pastor,desconhecida,via_publica,externo,cluster1
0.9375,ameaca,oeste,bom_pastor,desconhecida,via_publica,externo,cluster1
0.4375,atrito_verbal,sul,candelaria,antonio,estadual,externo,cluster1
0.8125,vias_de_fato,sul,candelaria,gurgel,estadual,externo,cluster1
0.375,solicitacao_de_policiamento,sul,candelaria,hipocrates,via_publica,externo,cluster1
0.4375,solicitacao_de_policiamento,sul,candelaria,luiz_antonio,estadual,externo,cluster1
0.625,ameaca,sul,candelaria,luiz_antonio,estadual,externo,cluster1
0.6875,ato_de_suspeicao,sul,candelaria,luiz_antonio,estadual,externo,cluster1
0.4375,desordem,sul,candelaria,luiz_antonio,estadual,externo,cluster1
0.1875,vias_de_fato,sul,candelaria,walfredo_gurgel,estadual,externo,cluster1
0.1875,consumo_de_entorpecentes,sul,candelaria,walfredo_gurgel,estadual,externo,cluster1
0.25,ameaca,sul,candelaria,walfredo_gurgel,estadual,interno,cluster1
0.625,consumo_de_entorpecentes,sul,candelaria,walfredo_gurgel,estadual,interno,cluster1
0.625,consumo_de_entorpecentes,sul,candelaria,walfredo_gurgel,estadual,interno,cluster1
0.4375,trafico,sul,candelaria,walfredo_gurgel,estadual,externo,cluster1
0.1875,agressao,sul,candelaria,desconhecida,via_publica,externo,cluster1
0.1875,roubo,sul,candelaria,desconhecida,particular,externo,cluster1
0.25,outro,sul,candelaria,desconhecida,estadual,externo,cluster1
0.3125,vias_de_fato,sul,candelaria,desconhecida,via_publica,externo,cluster1
0.5,ato_de_suspeicao,sul,candelaria,desconhecida,via_publica,externo,cluster1
0.5,ato_de_suspeicao,sul,capim_macio,passo_a_passo,particular,externo,cluster1
0.25,porte_ilegal_de_arma,sul,capim_macio,desconhecida,via_publica,externo,cluster1
0.125,ameaca,leste,cidade_alta,adventista,particular,interno,cluster1
0.3125,agressao,leste,cidade_alta,cade,particular,externo,cluster1
0.5625,furto,leste,cidade_alta,cade,particular,interno,cluster1
0.3125,ameaca,leste,cidade_alta,cdf,particular,externo,cluster1
0.4375,trafico,leste,cidade_alta,mareci_gomes,municipal,externo,cluster1
0.8125,roubo,leste,cidade_alta,menino_jesus,particular,externo,cluster1
0.5,furto,leste,cidade_alta,neves,via_publica,externo,cluster1
0.0625,furto,leste,cidade_alta,s._cecilia,particular,interno,cluster1
0.375,roubo,leste,cidade_alta,salesiano,particular,externo,cluster1
0.125,desordem,leste,cidade_alta,ulisses_de_gois,estadual,externo,cluster1
0.25,ato_de_suspeicao,leste,cidade_alta,ulisses_de_gois,estadual,interno,cluster1
0.3125,apoio_policial,leste,cidade_alta,winston_churchill,estadual,externo,cluster1
0.5625,furto,leste,cidade_alta,winston_churchill,estadual,externo,cluster1
0.4375,ato_de_suspeicao,leste,cidade_alta,winston_churchill,estadual,externo,cluster1
0.4375,desordem,leste,cidade_alta,winston_churchill,estadual,externo,cluster1
0.125,desordem,leste,cidade_alta,desconhecida,via_publica,externo,cluster1
0.3125,tentativa_de_suicidio,leste,cidade_alta,desconhecida,via_publica,externo,cluster1
0.375,ato_de_suspeicao,leste,cidade_alta,desconhecida,via_publica,externo,cluster1
0.5,roubo,leste,cidade_alta,desconhecida,via_publica,externo,cluster1
0.5625,ameaca,leste,cidade_alta,desconhecida,particular,externo,cluster1
1,ato_de_suspeicao,leste,cidade_alta,desconhecida,via_publica,externo,cluster1
0.0625,ameaca,oeste,cidade_da_esperanca,belem_camara,estadual,externo,cluster1
0.0625,outro,oeste,cidade_da_esperanca,belem_camara,estadual,externo,cluster1
0.625,prestacao_de_socorro,oeste,cidade_da_esperanca,belem_camara,estadual,externo,cluster1
0.625,furto,oeste,cidade_da_esperanca,celestino_pimentel,municipal,externo,cluster1
0.6875,furto,oeste,cidade_da_esperanca,celestino_pimentel,municipal,interno,cluster1
0.3125,solicitacao_de_policiamento,oeste,cidade_da_esperanca,jesiel_figueiredo,via_publica,interno,cluster1
0.125,desordem,oeste,cidade_da_esperanca,lauro_de_castro,estadual,interno,cluster1
0.5625,trafico,oeste,cidade_da_esperanca,lauro_de_castro,estadual,externo,cluster1
0.5625,vias_de_fato,oeste,cidade_da_esperanca,lauro_de_castro,estadual,interno,cluster1
0.875,ameaca,oeste,cidade_da_esperanca,luiz_soares,estadual,externo,cluster1
0.5,furto,oeste,cidade_da_esperanca,raimundo_soares,estadual,interno,cluster1
0.5625,vias_de_fato,oeste,cidade_da_esperanca,raimundo_soares,estadual,interno,cluster1
0.8125,lesao_corporal,oeste,cidade_da_esperanca,raimundo_soares,estadual,interno,cluster1
0.8125,outro,oeste,cidade_da_esperanca,raimundo_soares,estadual,interno,cluster1
0.4375,consumo_de_entorpecentes,oeste,cidade_da_esperanca,raimundo_soares,estadual,externo,cluster1
0.25,vias_de_fato,oeste,cidade_da_esperanca,soldado_luiz_gonzaga,estadual,interno,cluster1
0.125,abordagem_a_veiculo,oeste,cidade_da_esperanca,desconhecida,via_publica,externo,cluster1
0.3125,abordagem_a_veiculo,oeste,cidade_da_esperanca,desconhecida,via_publica,externo,cluster1
0.4375,roubo,oeste,cidade_da_esperanca,desconhecida,via_publica,externo,cluster2
0.4375,porte_ilegal_de_arma,oeste,cidade_da_esperanca,desconhecida,particular,externo,cluster1
0.5,lesao_corporal,oeste,cidade_da_esperanca,desconhecida,via_publica,externo,cluster1
0.625,ato_de_suspeicao,oeste,cidade_da_esperanca,desconhecida,via_publica,externo,cluster1
0.6875,roubo,oeste,cidade_da_esperanca,desconhecida,via_publica,externo,cluster2
0.75,roubo,oeste,cidade_da_esperanca,desconhecida,via_publica,externo,cluster2
0.8125,roubo,oeste,cidade_da_esperanca,desconhecida,via_publica,externo,cluster2
0.875,lesao_corporal,oeste,cidade_da_esperanca,desconhecida,via_publica,externo,cluster1
1,roubo,oeste,cidade_da_esperanca,desconhecida,via_publica,externo,cluster2
0.5625,ato_de_suspeicao,oeste,cidade_nova,luiz_maranhao,municipal,externo,cluster1
0.6875,ameaca,oeste,cidade_nova,luiz_maranhao,estadual,externo,cluster1
0.6875,outro,oeste,cidade_nova,luiz_maranhao,municipal,externo,cluster1
0.875,ato_de_suspeicao,oeste,cidade_nova,luiz_maranhao,estadual,externo,cluster1
0.5,ato_de_suspeicao,oeste,cidade_nova,saturnina_alves_de_lucena,municipal,externo,cluster1
0.25,furto,oeste,cidade_nova,uniao_do_povo,estadual,interno,cluster1
0.8125,furto,oeste,cidade_nova,uniao_do_povo,estadual,interno,cluster1
0.0625,ameaca,oeste,cidade_nova,zeneide_iginio_de_moura,municipal,interno,cluster1
0.625,roubo,oeste,cidade_nova,desconhecida,via_publica,externo,cluster1
0.75,assistencia_policial,oeste,cidade_nova,desconhecida,via_publica,externo,cluster1
1,ato_de_suspeicao,oeste,cidade_nova,desconhecida,via_publica,externo,cluster1
0.0625,roubo,leste,dix-sept_rosado,francisco_ivo,via_publica,externo,cluster1
0.1875,outro,oeste,dix-sept_rosado,lia_campos,estadual,interno,cluster1
0.1875,consumo_de_entorpecentes,oeste,dix-sept_rosado,lia_campos,estadual,interno,cluster1
0.1875,outro,oeste,dix-sept_rosado,lia_campos,estadual,interno,cluster1
0.3125,desordem,oeste,dix-sept_rosado,lia_campos,estadual,externo,cluster1
0.5625,ato_de_suspeicao,oeste,dix-sept_rosado,lia_campos,estadual,externo,cluster1
0.125,outro,oeste,dix-sept_rosado,luis_soares,estadual,interno,cluster1
0.4375,roubo,oeste,dix-sept_rosado,luis_soares,via_publica,externo,cluster1
0.125,furto,oeste,dix-sept_rosado,luiz_soares,estadual,interno,cluster1
0.5625,ameaca,oeste,dix-sept_rosado,luiz_soares,estadual,externo,cluster1
0.5625,ato_de_suspeicao,oeste,dix-sept_rosado,luiz_soares,estadual,interno,cluster1
0.6875,ameaca,oeste,dix-sept_rosado,luiz_soares,estadual,interno,cluster1
0.9375,ameaca,oeste,dix-sept_rosado,mario_lira,municipal,externo,cluster1
0.8125,furto,leste,dix-sept_rosado,soldado_luiz_gonzaga,estadual,interno,cluster1
0.9375,ato_de_suspeicao,sul,dix-sept_rosado,unp,particular,externo,cluster1
1,furto,sul,dix-sept_rosado,unp,particular,externo,cluster1
0.0625,roubo,oeste,dix-sept_rosado,desconhecida,via_publica,externo,cluster1
0.5,apoio_policial,oeste,dix-sept_rosado,desconhecida,via_publica,externo,cluster1
0.5625,assistencia_policial,oeste,dix-sept_rosado,desconhecida,via_publica,externo,cluster1
0.625,roubo,leste,dix-sept_rosado,desconhecida,via_publica,externo,cluster1
0.8125,ato_de_suspeicao,oeste,dix-sept_rosado,desconhecida,via_publica,externo,cluster1
0.875,desordem,oeste,dix-sept_rosado,desconhecida,via_publica,externo,cluster1
0.875,roubo,sul,dix-sept_rosado,desconhecida,via_publica,externo,cluster1
0.875,apoio_policial,oeste,dix-sept_rosado,desconhecida,via_publica,externo,cluster1
0.8125,tentativa_de_homicidio,oeste,felipe_camarao,clara_camarao,estadual,externo,cluster1
0.875,ato_de_suspeicao,oeste,felipe_camarao,clara_camarao,estadual,externo,cluster1
0.9375,solicitacao_de_policiamento,oeste,felipe_camarao,djalma_maranhao,municipal,externo,cluster1
0.1875,solicitacao_de_policiamento,oeste,felipe_camarao,francisca_ferreira,municipal,externo,cluster1
0.375,ato_de_suspeicao,oeste,felipe_camarao,fundacao_bradesco,federal,externo,cluster1
0.4375,outro,oeste,felipe_camarao,fundacao_bradesco,particular,externo,cluster1
0.5625,solicitacao_de_policiamento,oeste,felipe_camarao,maria_luiza,estadual,externo,cluster1
0.625,lesao_corporal,sul,felipe_camarao,maria_luiza,estadual,externo,cluster1
0,agressao,oeste,felipe_camarao,maria_queiroz,estadual,externo,cluster1
0.5,danos_ao_patrimônio_público,oeste,felipe_camarao,maria_queiroz,estadual,interno,cluster1
0.6875,ameaca,oeste,felipe_camarao,maria_queiroz,estadual,externo,cluster1
0.25,vias_de_fato,oeste,felipe_camarao,verissimo_de_melo,municipal,externo,cluster1
0.4375,vias_de_fato,oeste,felipe_camarao,verissimo_de_melo,municipal,interno,cluster1
0.5,assistencia_policial,oeste,felipe_camarao,verissimo_de_melo,municipal,externo,cluster1
0.625,ameaca,oeste,felipe_camarao,verissimo_de_melo,municipal,externo,cluster1
0.6875,ameaca,oeste,felipe_camarao,verissimo_de_melo,estadual,externo,cluster1
0.6875,consumo_de_entorpecentes,oeste,felipe_camarao,verissimo_de_melo,municipal,externo,cluster1
0.8125,desordem,oeste,felipe_camarao,verissimo_de_melo,municipal,externo,cluster1
0.9375,porte_ilegal_de_arma,oeste,felipe_camarao,verissimo_de_melo,municipal,externo,cluster1
0.125,tentativa_de_assalto,oeste,felipe_camarao,desconhecida,via_publica,externo,cluster1
0.25,roubo,oeste,felipe_camarao,desconhecida,via_publica,externo,cluster1
0.3125,ameaca,leste,felipe_camarao,desconhecida,via_publica,externo,cluster1
0.3125,consumo_de_entorpecentes,oeste,felipe_camarao,desconhecida,via_publica,externo,cluster1
0.5625,assistencia_policial,oeste,felipe_camarao,desconhecida,via_publica,externo,cluster1
0.5625,assistencia_policial,oeste,felipe_camarao,desconhecida,via_publica,externo,cluster1
0.625,ocorrencia_de_trânsito,oeste,felipe_camarao,desconhecida,via_publica,externo,cluster1
0.625,ameaca,oeste,felipe_camarao,desconhecida,via_publica,externo,cluster1
0.6875,atrito_verbal,oeste,felipe_camarao,desconhecida,municipal,interno,cluster1
0.8125,vias_de_fato,oeste,felipe_camarao,desconhecida,via_publica,externo,cluster1
0.8125,ato_de_suspeicao,oeste,felipe_camarao,desconhecida,via_publica,externo,cluster1
0.375,porte_ilegal_de_arma,oeste,guarapes,desconhecida,via_publica,externo,cluster1
0.375,porte_ilegal_de_arma,oeste,guarapes,desconhecida,via_publica,externo,cluster1
0.125,ato_de_suspeicao,norte,igapo,faculdade_estacio,particular,interno,cluster1
0.125,agressao,norte,igapo,graca_mota,municipal,externo,cluster1
0.25,vias_de_fato,norte,igapo,jose_sotero,municipal,interno,cluster1
0.4375,porte_ilegal_de_arma,norte,igapo,jose_sotero,estadual,externo,cluster1
0.125,outro,norte,igapo,menino_jesus,particular,externo,cluster1
0.125,abordagem_a_veiculo,norte,igapo,desconhecida,via_publica,externo,cluster1
0.125,roubo,norte,igapo,desconhecida,via_publica,externo,cluster1
0.1875,ameaca,norte,igapo,desconhecida,municipal,interno,cluster1
0.25,tentativa_de_assalto,norte,igapo,desconhecida,via_publica,externo,cluster1
0.3125,roubo,norte,igapo,desconhecida,via_publica,externo,cluster1
0.4375,assistencia_policial,norte,igapo,desconhecida,via_publica,externo,cluster1
0.5625,outro,norte,igapo,desconhecida,via_publica,externo,cluster1
0.6875,homicidio,norte,igapo,desconhecida,via_publica,externo,cluster1
0.75,ato_de_suspeicao,norte,igapo,desconhecida,via_publica,externo,cluster1
0.8125,outro,norte,igapo,desconhecida,via_publica,externo,cluster1
0.875,consumo_de_entorpecentes,norte,igapo,desconhecida,via_publica,externo,cluster1
0.625,roubo,norte,lagoa_azul,aldo_fernandes_de_melo,estadual,interno,cluster1
0.8125,ameaca,norte,lagoa_azul,crisan_simenea,estadual,interno,cluster1
0.0625,vias_de_fato,norte,lagoa_azul,dom_bosco,estadual,interno,cluster1
0.6875,roubo,norte,lagoa_azul,elizabeth_de_fatima_araujo_guilhermino,estadual,interno,cluster1
0.9375,apoio_policial,norte,lagoa_azul,luiz_wanderley,estadual,interno,cluster1
0.5625,ameaca,norte,lagoa_azul,mirian_coeli,estadual,interno,cluster1
0.6875,ameaca,norte,lagoa_azul,mirian_coeli,estadual,externo,cluster1
0.8125,vias_de_fato,norte,lagoa_azul,mirian_coeli,estadual,externo,cluster1
0.4375,consumo_de_entorpecentes,norte,lagoa_azul,paulo_pinheiro_de_viveiros,estadual,externo,cluster1
0.4375,desordem,norte,lagoa_azul,tania_almeida,municipal,externo,cluster1
0.25,ato_de_suspeicao,norte,lagoa_azul,xv_de_outubro,via_publica,externo,cluster1
0.4375,desordem,norte,lagoa_azul,xv_de_outubro,estadual,externo,cluster1
0.4375,desordem,norte,lagoa_azul,xv_de_outubro,estadual,externo,cluster1
0.1875,assistencia_policial,norte,lagoa_azul,desconhecida,estadual,externo,cluster1
0.3125,roubo,norte,lagoa_azul,desconhecida,particular,externo,cluster1
0.5,consumo_de_entorpecentes,leste,lagoa_azul,desconhecida,via_publica,externo,cluster1
0.5625,roubo,norte,lagoa_azul,desconhecida,via_publica,externo,cluster1
0.875,apoio_policial,norte,lagoa_azul,desconhecida,via_publica,externo,cluster1
0.5625,consumo_de_entorpecentes,oeste,lagoa_nova,caic_lagoa_nova,estadual,interno,cluster1
0.25,outro,sul,lagoa_nova,contemporaneo,particular,externo,cluster1
0.25,outro,sul,lagoa_nova,contemporaneo,particular,externo,cluster1
0.1875,roubo,sul,lagoa_nova,edgar_barbosa,estadual,externo,cluster1
0.25,ameaca,sul,lagoa_nova,edgar_barbosa,estadual,externo,cluster1
0.25,ameaca,leste,lagoa_nova,manoel_villaca,estadual,externo,cluster1
0.3125,ameaca,sul,lagoa_nova,manoel_villaca,estadual,externo,cluster1
0.4375,consumo_de_entorpecentes,oeste,lagoa_nova,manoel_villaca,estadual,externo,cluster1
0.75,roubo,oeste,lagoa_nova,manoel_villaca,via_publica,externo,cluster1
0.125,consumo_de_entorpecentes,leste,lagoa_nova,regulo_tinoco,estadual,externo,cluster1
0.3125,ato_de_suspeicao,sul,lagoa_nova,regulo_tinoco,via_publica,externo,cluster1
0.3125,assistencia_policial,sul,lagoa_nova,regulo_tinoco,estadual,interno,cluster1
0.8125,consumo_de_entorpecentes,sul,lagoa_nova,regulo_tinoco,estadual,interno,cluster1
0.4375,desordem,sul,lagoa_nova,regulo_tinoco,estadual,externo,cluster1
0.125,roubo,sul,lagoa_nova,unp,particular,interno,cluster1
0.5625,roubo,leste,lagoa_nova,unp,via_publica,externo,cluster1
0.875,atrito_verbal,sul,lagoa_nova,unp,particular,externo,cluster1
1,roubo,sul,lagoa_nova,unp,particular,externo,cluster1
0.0625,ameaca,sul,lagoa_nova,desconhecida,via_publica,externo,cluster1
0.0625,roubo,sul,lagoa_nova,desconhecida,via_publica,externo,cluster3
0.125,roubo,sul,lagoa_nova,desconhecida,via_publica,externo,cluster3
0.25,roubo,sul,lagoa_nova,desconhecida,via_publica,externo,cluster3
0.375,atrito_verbal,sul,lagoa_nova,desconhecida,via_publica,externo,cluster1
0.4375,roubo,sul,lagoa_nova,desconhecida,via_publica,externo,cluster3
0.6875,prestacao_de_socorro,leste,lagoa_nova,desconhecida,via_publica,externo,cluster1
0.75,roubo,leste,lagoa_nova,desconhecida,particular,externo,cluster1
0.75,porte_ilegal_de_arma,sul,lagoa_nova,desconhecida,via_publica,externo,cluster1
0.8125,roubo,leste,lagoa_nova,desconhecida,via_publica,externo,cluster1
0.8125,roubo,sul,lagoa_nova,desconhecida,via_publica,externo,cluster3
0.8125,apoio_policial,oeste,lagoa_nova,desconhecida,via_publica,externo,cluster1
0.9375,porte_ilegal_de_arma,leste,lagoa_nova,desconhecida,via_publica,externo,cluster1
0.9375,furto,leste,lagoa_nova,desconhecida,via_publica,externo,cluster1
0.9375,furto,sul,lagoa_nova,desconhecida,via_publica,externo,cluster1
0.125,ato_de_suspeicao,leste,lagoa_seca,mascarenhas_homem,estadual,externo,cluster1
0.6875,lesao_corporal,oeste,lagoa_seca,mascarenhas_homem,estadual,externo,cluster1
0.4375,roubo,leste,lagoa_seca,mascarenhas_homem,estadual,externo,cluster1
0.25,vias_de_fato,leste,lagoa_seca,nestor_lima,estadual,externo,cluster1
0.6875,trafico,leste,lagoa_seca,nestor_lima,estadual,externo,cluster1
0.4375,consumo_de_entorpecentes,sul,lagoa_seca,nestor_lima,estadual,externo,cluster1
0.75,assistencia_policial,leste,lagoa_seca,desconhecida,via_publica,externo,cluster1
0.25,ameaca,leste,mae_luiza,alberto_torres,estadual,interno,cluster1
0.5,ato_de_suspeicao,leste,mae_luiza,dinarte_mariz,estadual,externo,cluster1
0.625,roubo,leste,mae_luiza,dinarte_mariz,estadual,externo,cluster1
0.9375,ameaca,leste,mae_luiza,mariz,estadual,externo,cluster1
0.4375,ameaca,leste,mae_luiza,severino_bezerra_de_melo,estadual,externo,cluster1
0.4375,desordem,leste,mae_luiza,severino_bezerra_de_melo,estadual,externo,cluster1
0.0625,outro,leste,mae_luiza,desconhecida,estadual,interno,cluster1
0.25,ameaca,sul,mirassol,cavalcante,estadual,externo,cluster1
0.25,agressao,sul,mirassol,floriano_cavalcante,estadual,interno,cluster1
0.25,ato_de_suspeicao,sul,mirassol,floriano_cavalcante,estadual,externo,cluster1
0.3125,tentativa_de_assalto,sul,mirassol,floriano_cavalcante,estadual,externo,cluster1
0.5,roubo,sul,mirassol,floriano_cavalcante,estadual,externo,cluster1
0.4375,desordem,sul,mirassol,floriano_cavalcante,estadual,externo,cluster5
0.4375,desordem,sul,mirassol,floriano_cavalcante,estadual,externo,cluster5
0.4375,desordem,sul,mirassol,floriano_cavalcante,estadual,externo,cluster5
0.375,roubo,sul,mirassol,vilma_dutra,via_publica,externo,cluster1
0.25,solicitacao_de_policiamento,sul,neopolis,arnaldo_monteiro,municipal,externo,cluster1
0.6875,lesao_corporal,sul,neopolis,arnaldo_monteiro,municipal,externo,cluster1
0.4375,trafico,oeste,neopolis,berilo_wanderley,estadual,externo,cluster1
0.4375,desordem,sul,neopolis,berilo_wanderley,estadual,externo,cluster1
0.25,furto,sul,neopolis,estela_wanderley,estadual,interno,cluster1
0.25,ameaca,sul,neopolis,ferreira_itajuba,estadual,externo,cluster1
0.3125,roubo,sul,neopolis,ferreira_itajuba,estadual,externo,cluster1
0.4375,furto,sul,neopolis,ferreira_itajuba,estadual,interno,cluster1
0.4375,vias_de_fato,sul,neopolis,ferreira_itajuba,estadual,externo,cluster1
0.25,solicitacao_de_policiamento,sul,neopolis,maia_neto,estadual,externo,cluster1
0.3125,abordagem_a_veiculo,sul,neopolis,desconhecida,via_publica,externo,cluster1
0.5,ameaca,sul,neopolis,desconhecida,via_publica,externo,cluster1
0.5625,tentativa_de_assalto,sul,neopolis,desconhecida,via_publica,externo,cluster1
0.6875,assistencia_policial,norte,nossa_senhora_da_apresentacao,alferes_tiradentes,estadual,interno,cluster1
0.1875,ameaca,norte,nossa_senhora_da_apresentacao,almeida,municipal,externo,cluster1
0.1875,ameaca,norte,nossa_senhora_da_apresentacao,amadeu_araujo,municipal,interno,cluster1
0.25,outro,norte,nossa_senhora_da_apresentacao,ana_julia,estadual,interno,cluster1
0.375,roubo,norte,nossa_senhora_da_apresentacao,ana_julia,estadual,externo,cluster1
0.4375,roubo,norte,nossa_senhora_da_apresentacao,ana_julia,estadual,externo,cluster1
0.8125,ato_de_suspeicao,norte,nossa_senhora_da_apresentacao,ana_julia,estadual,externo,cluster1
0.4375,desordem,norte,nossa_senhora_da_apresentacao,ana_julia,estadual,externo,cluster1
0.3125,outro,norte,nossa_senhora_da_apresentacao,arco_iris,particular,interno,cluster1
0.625,lesao_corporal,norte,nossa_senhora_da_apresentacao,dalva_de_oliveira,municipal,interno,cluster1
0.125,furto,norte,nossa_senhora_da_apresentacao,estrela_do_leste,estadual,externo,cluster1
0.5,vias_de_fato,norte,nossa_senhora_da_apresentacao,paulino,estadual,externo,cluster1
0.5625,ato_de_suspeicao,norte,nossa_senhora_da_apresentacao,pinheiro,municipal,externo,cluster1
0.4375,ato_de_suspeicao,norte,nossa_senhora_da_apresentacao,reginaldo_ferreira_neto,municipal,externo,cluster1
0.1875,ameaca,norte,nossa_senhora_da_apresentacao,terezinha_paulino,municipal,externo,cluster1
0.3125,apoio_policial,norte,nossa_senhora_da_apresentacao,terezinha_paulino,municipal,externo,cluster1
0.0625,porte_ilegal_de_arma,norte,nossa_senhora_da_apresentacao,desconhecida,via_publica,externo,cluster6
0.25,roubo,norte,nossa_senhora_da_apresentacao,desconhecida,via_publica,externo,cluster1
0.25,agressao,norte,nossa_senhora_da_apresentacao,desconhecida,via_publica,externo,cluster1
0.25,furto,norte,nossa_senhora_da_apresentacao,desconhecida,via_publica,externo,cluster1
0.3125,desordem,norte,nossa_senhora_da_apresentacao,desconhecida,via_publica,externo,cluster1
0.375,apoio_policial,norte,nossa_senhora_da_apresentacao,desconhecida,particular,externo,cluster1
0.5,ato_de_suspeicao,norte,nossa_senhora_da_apresentacao,desconhecida,particular,externo,cluster1
0.5625,assistencia_policial,norte,nossa_senhora_da_apresentacao,desconhecida,via_publica,interno,cluster1
0.625,porte_ilegal_de_arma,norte,nossa_senhora_da_apresentacao,desconhecida,via_publica,externo,cluster6
0.625,roubo,norte,nossa_senhora_da_apresentacao,desconhecida,via_publica,externo,cluster1
0.6875,agressao,norte,nossa_senhora_da_apresentacao,desconhecida,via_publica,externo,cluster1
0.8125,ato_de_suspeicao,norte,nossa_senhora_da_apresentacao,desconhecida,via_publica,externo,cluster1
1,porte_ilegal_de_arma,norte,nossa_senhora_da_apresentacao,desconhecida,via_publica,externo,cluster6
0.3125,ameaca,oeste,nossa_senhora_de_nazare,zuza,municipal,interno,cluster1
0.6875,porte_ilegal_de_arma,oeste,nossa_senhora_de_nazare,zuza,municipal,interno,cluster1
0.875,roubo,oeste,nossa_senhora_de_nazare,desconhecida,via_publica,externo,cluster1
0.5625,ameaca,oeste,nossa_senhora_de_nazare,judite_bezerra,estadual,externo,cluster1
0.4375,vias_de_fato,oeste,nossa_senhora_de_nazare,luiz_gonzaga,estadual,externo,cluster1
0.5625,roubo,sul,nova_descoberta,contemporaneo,particular,externo,cluster1
0.125,outro,sul,nova_descoberta,ulisses_de_gois,municipal,interno,cluster1
0.25,ameaca,sul,nova_descoberta,ulisses_de_gois,municipal,externo,cluster1
0.5,assistencia_policial,sul,nova_descoberta,ulisses_de_gois,municipal,interno,cluster1
0.625,atrito_verbal,sul,nova_descoberta,ulisses_de_gois,estadual,externo,cluster1
0.6875,ato_de_suspeicao,sul,nova_descoberta,ulisses_de_gois,municipal,externo,cluster1
0.375,assistencia_policial,leste,nova_descoberta,ulisses_de_gois,estadual,externo,cluster1
0.625,ameaca,sul,nova_descoberta,vigario_bartolomeu,estadual,interno,cluster1
0.4375,desordem,sul,nova_descoberta,vigario_bartolomeu,estadual,externo,cluster1
0.125,furto,sul,nova_descoberta,desconhecida,via_publica,externo,cluster1
0.6875,consumo_de_entorpecentes,sul,nova_descoberta,desconhecida,via_publica,externo,cluster1
0.8125,agressao,sul,nova_parnamirim,francinete_g._maia,municipal,interno,cluster1
0.625,solicitacao_de_policiamento,norte,pajucara,francisca_de_oliveira,municipal,externo,cluster1
0.875,roubo,norte,pajucara,hipocrates,via_publica,externo,cluster1
0.4375,ocorrencia_de_trânsito,norte,pajucara,ifrn_norte,federal,externo,cluster1
0.8125,solicitacao_de_policiamento,norte,pajucara,maria_alexandrina_sampaio,municipal,interno,cluster1
0.5,furto,norte,pajucara,palmira_de_souza,municipal,externo,cluster1
0.625,roubo,norte,pajucara,varela_barca,estadual,externo,cluster1
0.625,ato_de_suspeicao,norte,pajucara,zila_mamede,estadual,externo,cluster1
0.1875,abordagem_a_veiculo,norte,pajucara,desconhecida,via_publica,externo,cluster1
0.375,danos_ao_patrimônio_público,norte,pajucara,desconhecida,via_publica,externo,cluster1
0.5625,consumo_de_entorpecentes,norte,pajucara,desconhecida,via_publica,externo,cluster1
0.625,roubo,norte,pajucara,desconhecida,via_publica,externo,cluster1
0.6875,danos_ao_patrimônio_público,norte,pajucara,desconhecida,particular,externo,cluster1
0.9375,outro,norte,pajucara,desconhecida,via_publica,externo,cluster1
0.4375,roubo,norte,pajucara,desconhecida,via_publica,externo,cluster1
0.25,outro,sul,parnamirim,roberto_klause,estadual,externo,cluster1
0.25,solicitacao_de_policiamento,leste,parnamirim,silvino_bezerra,municipal,externo,cluster1
0,roubo,sul,parnamirim,desconhecida,via_publica,externo,cluster1
0.0625,outro,sul,parnamirim,desconhecida,via_publica,externo,cluster1
0.1875,furto,leste,petropolis,alberto_torres,estadual,externo,cluster1
0.1875,danos_ao_patrimônio_público,leste,petropolis,alberto_torres,estadual,externo,cluster1
0.8125,consumo_de_entorpecentes,leste,petropolis,anisio_teixeira,estadual,externo,cluster1
0.8125,consumo_de_entorpecentes,leste,petropolis,anisio_teixeira,estadual,externo,cluster1
0.4375,desordem,leste,petropolis,anisio_teixeira,estadual,externo,cluster1
0.4375,furto,leste,petropolis,anisio_teixeira,estadual,externo,cluster1
0.4375,consumo_de_entorpecentes,leste,petropolis,atheneu,estadual,externo,cluster1
0.1875,vias_de_fato,leste,petropolis,augusto_severo,estadual,interno,cluster1
0.25,ato_de_suspeicao,leste,petropolis,augusto_severo,estadual,externo,cluster1
0.4375,desordem,leste,petropolis,augusto_severo,estadual,externo,cluster1
0.125,atos_libidinosos,leste,petropolis,desconhecida,via_publica,externo,cluster1
0.25,furto,leste,petropolis,desconhecida,via_publica,externo,cluster1
0.5625,roubo,leste,petropolis,desconhecida,via_publica,externo,cluster1
0.5625,consumo_de_entorpecentes,leste,petropolis,desconhecida,via_publica,externo,cluster1
0.75,tentativa_de_assalto,leste,petropolis,desconhecida,via_publica,externo,cluster1
0.75,desordem,leste,petropolis,desconhecida,particular,externo,cluster1
0.8125,roubo,leste,petropolis,desconhecida,via_publica,externo,cluster1
0.8125,lesao_corporal,leste,petropolis,desconhecida,via_publica,externo,cluster1
0.8125,ato_de_suspeicao,leste,petropolis,desconhecida,via_publica,externo,cluster1
0.1875,outro,sul,pirangi,arnaldo_monteiro,municipal,externo,cluster1
0.1875,solicitacao_de_policiamento,sul,pirangi,lourdes_guilherme,estadual,externo,cluster1
0.3125,furto,sul,pirangi,lourdes_guilherme,estadual,interno,cluster1
0.5625,desordem,sul,pirangi,lourdes_guilherme,estadual,interno,cluster1
0.8125,roubo,sul,pirangi,lourdes_guilherme,estadual,externo,cluster1
0.4375,ameaca,sul,pirangi,stella_wanderley,estadual,externo,cluster1
0.4375,desordem,sul,pirangi,stella_wanderley,estadual,externo,cluster1
0.125,lesao_corporal,sul,pitimbu,antonio_pinto,estadual,externo,cluster1
0.25,trafico,oeste,pitimbu,antonio_pinto,estadual,externo,cluster1
0.25,assistencia_policial,sul,pitimbu,antonio_pinto,estadual,interno,cluster1
0.4375,roubo,sul,pitimbu,antonio_pinto,estadual,externo,cluster1
0.5625,consumo_de_entorpecentes,sul,pitimbu,antonio_pinto,estadual,externo,cluster1
0.625,ato_de_suspeicao,sul,pitimbu,antonio_pinto,estadual,externo,cluster1
0.8125,agressao,sul,pitimbu,antonio_pinto,estadual,interno,cluster1
0.3125,desordem,sul,pitimbu,ascendino_de_almeida,municipal,interno,cluster1
0.625,agressao,sul,pitimbu,brigadeiro_eduardo_gomes,municipal,interno,cluster1
0.875,ato_de_suspeicao,sul,pitimbu,claudete_maciel,estadual,externo,cluster1
0.25,ameaca,sul,pitimbu,cpu,via_publica,externo,cluster1
0.125,danos_ao_patrimônio_público,sul,pitimbu,djalma_aranha_marinho,estadual,externo,cluster1
0.25,desordem,sul,pitimbu,djalma_aranha_marinho,estadual,externo,cluster1
0.3125,assistencia_policial,oeste,pitimbu,djalma_aranha_marinho,estadual,externo,cluster1
0.3125,agressao,sul,pitimbu,djalma_aranha_marinho,estadual,interno,cluster1
0.375,agressao,sul,pitimbu,djalma_aranha_marinho,estadual,interno,cluster1
0.4375,roubo,sul,pitimbu,djalma_aranha_marinho,estadual,externo,cluster1
0.4375,assistencia_policial,sul,pitimbu,djalma_aranha_marinho,estadual,interno,cluster1
0.6875,vias_de_fato,sul,pitimbu,djalma_aranha_marinho,estadual,externo,cluster1
0.8125,apoio_policial,sul,pitimbu,djalma_aranha_marinho,estadual,interno,cluster1
0.9375,apoio_policial,sul,pitimbu,djalma_aranha_marinho,estadual,externo,cluster1
0.9375,porte_ilegal_de_arma,sul,pitimbu,djalma_aranha_marinho,estadual,interno,cluster1
0.9375,vias_de_fato,sul,pitimbu,djalma_aranha_marinho,estadual,interno,cluster1
0.25,solicitacao_de_policiamento,oeste,pitimbu,instituto_brasil,particular,externo,cluster1
0.6875,ato_de_suspeicao,oeste,pitimbu,maria_de_lourdes_martins,municipal,externo,cluster1
0.25,ato_de_suspeicao,sul,pitimbu,oto_de_brito_guerra,municipal,externo,cluster1
0.625,desordem,oeste,pitimbu,oto_de_brito_guerra,estadual,externo,cluster1
0.1875,assistencia_policial,sul,pitimbu,desconhecida,via_publica,externo,cluster1
0.25,ameaca,sul,pitimbu,desconhecida,via_publica,externo,cluster1
0.3125,assistencia_policial,sul,pitimbu,desconhecida,via_publica,externo,cluster1
0.5625,furto,sul,pitimbu,desconhecida,via_publica,externo,cluster1
0.625,ato_de_suspeicao,sul,pitimbu,desconhecida,via_publica,externo,cluster1
0.6875,apoio_policial,sul,pitimbu,desconhecida,via_publica,externo,cluster1
0.375,agressao,oeste,planalto,arnaldo_arsenio,municipal,interno,cluster1
0.4375,solicitacao_de_policiamento,oeste,planalto,emanuel_bezerra,municipal,interno,cluster1
0.5625,danos_ao_patrimônio_público,oeste,planalto,manoel_bezerra,municipal,externo,cluster1
0.5,atos_libidinosos,oeste,planalto,desconhecida,via_publica,externo,cluster1
0.6875,ato_de_suspeicao,leste,planalto,desconhecida,via_publica,externo,cluster1
0.875,assistencia_policial,oeste,planalto,desconhecida,via_publica,externo,cluster1
0.9375,homicidio,oeste,planalto,desconhecida,via_publica,externo,cluster1
0.3125,consumo_de_entorpecentes,sul,ponta_negra,carmem_maria_reis,municipal,externo,cluster1
0.625,outro,sul,ponta_negra,carmem_maria_reis,via_publica,externo,cluster1
0.4375,ameaca,sul,ponta_negra,espaco_educacao,particular,interno,cluster1
0.4375,ato_de_suspeicao,sul,ponta_negra,espaco_educacao,estadual,externo,cluster1
0.1875,vias_de_fato,sul,ponta_negra,joao_fernandes_machado,estadual,externo,cluster1
0.125,furto,sul,ponta_negra,jose_fernandes_machado,estadual,interno,cluster1
0.1875,porte_ilegal_de_arma,sul,ponta_negra,jose_fernandes_machado,estadual,interno,cluster1
0.25,agressao,sul,ponta_negra,jose_fernandes_machado,estadual,interno,cluster7
0.25,agressao,sul,ponta_negra,jose_fernandes_machado,estadual,interno,cluster7
0.25,agressao,sul,ponta_negra,jose_fernandes_machado,estadual,interno,cluster7
0.3125,danos_ao_patrimônio_público,sul,ponta_negra,jose_fernandes_machado,estadual,externo,cluster1
0.3125,outro,sul,ponta_negra,jose_fernandes_machado,estadual,interno,cluster8
0.375,roubo,sul,ponta_negra,jose_fernandes_machado,estadual,interno,cluster1
0.5625,vias_de_fato,sul,ponta_negra,jose_fernandes_machado,estadual,interno,cluster1
0.625,outro,sul,ponta_negra,jose_fernandes_machado,estadual,interno,cluster8
0.8125,outro,sul,ponta_negra,jose_fernandes_machado,estadual,interno,cluster8
0.875,consumo_de_entorpecentes,sul,ponta_negra,jose_fernandes_machado,estadual,interno,cluster1
0.9375,lesao_corporal,sul,ponta_negra,jose_fernandes_machado,estadual,interno,cluster1
0.4375,ato_de_suspeicao,sul,ponta_negra,jose_fernandes_machado,estadual,externo,cluster1
0.4375,ameaca,sul,ponta_negra,jose_fernandes_machado,estadual,externo,cluster1
0.4375,desordem,sul,ponta_negra,jose_fernandes_machado,estadual,externo,cluster1
0.5625,trafico,sul,ponta_negra,josefa_botelho,municipal,externo,cluster1
0.625,solicitacao_de_policiamento,sul,ponta_negra,josefa_botelho,municipal,interno,cluster1
0.4375,consumo_de_entorpecentes,sul,ponta_negra,josefa_botelho,municipal,externo,cluster1
0.1875,ato_de_suspeicao,sul,ponta_negra,desconhecida,via_publica,externo,cluster1
0.1875,ato_de_suspeicao,sul,ponta_negra,desconhecida,via_publica,externo,cluster1
0.375,vias_de_fato,sul,ponta_negra,desconhecida,via_publica,externo,cluster1
0.375,roubo,sul,ponta_negra,desconhecida,via_publica,externo,cluster1
0.6875,assistencia_policial,sul,ponta_negra,desconhecida,estadual,externo,cluster1
0.75,assistencia_policial,sul,ponta_negra,desconhecida,via_publica,interno,cluster1
0.8125,ameaca,sul,ponta_negra,desconhecida,via_publica,externo,cluster1
0.9375,tentativa_de_homicidio,sul,ponta_negra,desconhecida,via_publica,externo,cluster1
0.9375,abordagem_a_veiculo,sul,ponta_negra,desconhecida,via_publica,externo,cluster1
0.4375,desordem,norte,potengi,antonio_fagundes,estadual,externo,cluster1
0.625,danos_ao_patrimônio_público,norte,potengi,barca,estadual,externo,cluster1
0.25,agressao,norte,potengi,hipocrates,particular,interno,cluster1
0.5625,ameaca,norte,potengi,jose_adelino_dantas,estadual,externo,cluster1
0.625,desordem,norte,potengi,jose_adelino_dantas,estadual,externo,cluster1
0.4375,desordem,norte,potengi,jose_adelino_dantas,estadual,externo,cluster1
0.4375,ameaca,norte,potengi,jose_alves_landin,municipal,externo,cluster1
0.5,outro,norte,potengi,jose_do_patrocinio,municipal,interno,cluster1
0.4375,desordem,norte,potengi,jose_do_patrocinio,estadual,externo,cluster1
0.4375,desordem,norte,potengi,josino_macedo,municipal,externo,cluster1
0.4375,desordem,norte,potengi,josino_macedo,estadual,externo,cluster1
0.75,porte_ilegal_de_arma,norte,potengi,monsenhor_jose_alves_landim,municipal,interno,cluster1
0.4375,desordem,norte,potengi,monsenhor_jose_alves_landim,municipal,externo,cluster1
0.3125,consumo_de_entorpecentes,norte,potengi,vovo_geogina,via_publica,externo,cluster1
0.25,danos_ao_patrimônio_público,norte,potengi,walter_duarte_pereira,estadual,externo,cluster1
0.4375,lesao_corporal,norte,potengi,walter_duarte_pereira,estadual,externo,cluster1
0.625,agressao,norte,potengi,walter_duarte_pereira,estadual,interno,cluster1
0.4375,desordem,norte,potengi,walter_duarte_pereira,estadual,externo,cluster1
0.4375,desordem,norte,potengi,walter_duarte_pereira,estadual,externo,cluster1
0.25,apoio_policial,norte,potengi,desconhecida,via_publica,externo,cluster1
0.4375,roubo,norte,potengi,desconhecida,via_publica,externo,cluster9
0.5,ato_de_suspeicao,norte,potengi,desconhecida,via_publica,externo,cluster1
0.5,assistencia_policial,norte,potengi,desconhecida,via_publica,externo,cluster1
0.5625,roubo,norte,potengi,desconhecida,via_publica,externo,cluster9
0.5625,roubo,norte,potengi,desconhecida,via_publica,externo,cluster9
0.625,tentativa_de_homicidio,norte,potengi,desconhecida,via_publica,externo,cluster1
0.9375,homicidio,norte,potengi,desconhecida,via_publica,externo,cluster1
0.9375,roubo,norte,potengi,desconhecida,via_publica,externo,cluster9
0.4375,ato_de_suspeicao,norte,potengi,desconhecida,via_publica,externo,cluster1
0.4375,desordem,leste,praia_do_meio,olda_marinho,estadual,externo,cluster1
0.5625,furto,leste,praia_do_meio,desconhecida,via_publica,externo,cluster1
0.75,vias_de_fato,oeste,quintas,angelica_moura,municipal,externo,cluster1
0.625,roubo,oeste,quintas,expansivo,particular,externo,cluster1
0.25,ameaca,oeste,quintas,ferreira_itajuba,municipal,externo,cluster10
0.5,solicitacao_de_policiamento,leste,quintas,ferreira_itajuba,municipal,interno,cluster1
0.5625,ameaca,oeste,quintas,ferreira_itajuba,municipal,externo,cluster10
0.625,solicitacao_de_policiamento,oeste,quintas,ferreira_itajuba,municipal,externo,cluster1
0.6875,ameaca,oeste,quintas,ferreira_itajuba,municipal,externo,cluster10
0.8125,vias_de_fato,oeste,quintas,ferreira_itajuba,estadual,externo,cluster1
0.6875,ameaca,leste,quintas,maria_lidia,estadual,externo,cluster1
0.1875,outro,leste,quintas,stela_goncalves,estadual,interno,cluster1
0.4375,consumo_de_entorpecentes,leste,quintas,stela_goncalves,estadual,externo,cluster1
0.0625,atrito_verbal,leste,quintas,verissimo_de_melo,municipal,interno,cluster1
0.125,roubo,leste,quintas,desconhecida,via_publica,externo,cluster1
0.1875,prestacao_de_socorro,oeste,quintas,desconhecida,via_publica,externo,cluster1
0.3125,consumo_de_entorpecentes,oeste,quintas,desconhecida,via_publica,externo,cluster1
0.375,apoio_policial,oeste,quintas,desconhecida,via_publica,externo,cluster1
0.4375,roubo,oeste,quintas,desconhecida,via_publica,externo,cluster11
0.5,roubo,oeste,quintas,desconhecida,via_publica,externo,cluster11
0.5625,ameaca,oeste,quintas,desconhecida,via_publica,externo,cluster1
0.5625,roubo,oeste,quintas,desconhecida,via_publica,externo,cluster11
0.875,roubo,leste,quintas,desconhecida,via_publica,externo,cluster1
0.5,vias_de_fato,norte,redinha,dulce_wanderley,estadual,interno,cluster1
0.5625,trafico,norte,redinha,dulce_wanderley,estadual,interno,cluster1
0.6875,furto,norte,redinha,dulce_wanderley,estadual,externo,cluster1
0.5,lesao_corporal,norte,redinha,desconhecida,via_publica,externo,cluster1
0.6875,ato_de_suspeicao,norte,redinha,desconhecida,via_publica,externo,cluster1
0.6875,apoio_policial,norte,redinha,desconhecida,via_publica,externo,cluster1
0.875,outro,norte,redinha,desconhecida,via_publica,externo,cluster1
0.5,consumo_de_entorpecentes,leste,ribeira,padre_monte,estadual,externo,cluster1
0.25,agressao,leste,ribeira,ulisses_de_gois,estadual,interno,cluster1
0.3125,vias_de_fato,leste,ribeira,ulisses_de_gois,estadual,externo,cluster12
0.3125,furto,leste,ribeira,ulisses_de_gois,estadual,interno,cluster1
0.5625,vias_de_fato,leste,ribeira,ulisses_de_gois,estadual,externo,cluster12
0.5625,vias_de_fato,leste,ribeira,ulisses_de_gois,estadual,externo,cluster12
0.3125,outro,leste,ribeira,desconhecida,municipal,externo,cluster1
0.125,furto,leste,rocas,acrisio_freire,estadual,interno,cluster1
0.4375,ameaca,leste,rocas,gondim,estadual,externo,cluster1
0.9375,roubo,oeste,rocas,isabel_godim,estadual,externo,cluster1
0.4375,desordem,leste,rocas,isabel_godim,estadual,externo,cluster1
0.25,assistencia_policial,leste,rocas,santos_reis,municipal,externo,cluster1
0.1875,roubo,leste,rocas,desconhecida,via_publica,externo,cluster1
0.5,lesao_corporal,leste,rocas,desconhecida,via_publica,externo,cluster1
0.5625,consumo_de_entorpecentes,leste,santos_reis,josefa_sampaio,estadual,externo,cluster1
0.6875,ameaca,leste,santos_reis,josefa_sampaio,estadual,interno,cluster1
0.625,vias_de_fato,leste,santos_reis,santos_reis,municipal,interno,cluster1
0.875,tentativa_de_suicidio,leste,santos_reis,desconhecida,via_publica,externo,cluster1
0.9375,ocorrencia_de_trânsito,leste,santos_reis,desconhecida,via_publica,externo,cluster1
0.75,vias_de_fato,leste,tirol,anisio_teixeira,estadual,externo,cluster1
0.3125,desordem,leste,tirol,manoel_dantas,estadual,interno,cluster1
0.25,ato_de_suspeicao,leste,tirol,people_formacao_completa,particular,externo,cluster1
0.25,outro,leste,tirol,desconhecida,via_publica,externo,cluster1
0.5,roubo,leste,tirol,desconhecida,via_publica,externo,cluster13
0.6875,furto,leste,tirol,desconhecida,particular,externo,cluster1
0.8125,roubo,leste,tirol,desconhecida,via_publica,externo,cluster13
0.875,roubo,leste,tirol,desconhecida,via_publica,externo,cluster13
0.75,abordagem_a_veiculo,oeste,nao_informado,desconhecida,via_publica,externo,cluster1
0.4375,vias_de_fato,leste,nao_informado,desconhecida,estadual,externo,cluster1
0.4375,lesao_corporal,leste,nao_informado,desconhecida,via_publica,externo,cluster1
0.4375,vias_de_fato,leste,nao_informado,desconhecida,via_publica,externo,cluster1
0.4375,desordem,leste,nao_informado,desconhecida,via_publica,externo,cluster14
0.4375,prestacao_de_socorro,leste,nao_informado,desconhecida,via_publica,externo,cluster1
0.4375,tentativa_de_assalto,leste,nao_informado,desconhecida,via_publica,externo,cluster1
0.4375,desordem,leste,nao_informado,desconhecida,via_publica,externo,cluster14
0.4375,roubo,leste,nao_informado,desconhecida,via_publica,externo,cluster15
0.4375,desordem,sul,nao_informado,desconhecida,via_publica,externo,cluster16
0.4375,trafico,oeste,nao_informado,desconhecida,via_publica,externo,cluster1
0.4375,trafico,leste,nao_informado,desconhecida,via_publica,externo,cluster17
0.4375,roubo,leste,nao_informado,desconhecida,via_publica,externo,cluster15
0.4375,consumo_de_entorpecentes,leste,nao_informado,desconhecida,via_publica,externo,cluster18
0.4375,trafico,leste,nao_informado,desconhecida,via_publica,externo,cluster17
0.4375,trafico,oeste,nao_informado,desconhecida,via_publica,externo,cluster1
0.4375,furto,oeste,nao_informado,desconhecida,via_publica,externo,cluster1
0.4375,roubo,leste,nao_informado,desconhecida,via_publica,externo,cluster15
0.4375,consumo_de_entorpecentes,oeste,nao_informado,desconhecida,via_publica,externo,cluster1
0.4375,consumo_de_entorpecentes,oeste,nao_informado,desconhecida,via_publica,externo,cluster1
0.4375,trafico,leste,nao_informado,desconhecida,via_publica,externo,cluster17
0.4375,tentativa_de_homicidio,leste,nao_informado,desconhecida,via_publica,externo,cluster1
0.4375,consumo_de_entorpecentes,leste,nao_informado,desconhecida,via_publica,externo,cluster18
0.4375,desordem,leste,nao_informado,desconhecida,via_publica,externo,cluster14
0.4375,ocorrencia_de_trânsito,leste,nao_informado,desconhecida,via_publica,externo,cluster1
0.4375,desordem,leste,nao_informado,desconhecida,via_publica,externo,cluster14
0.4375,desordem,leste,nao_informado,desconhecida,via_publica,externo,cluster14
0.4375,roubo,norte,nao_informado,desconhecida,via_publica,externo,cluster1
0.4375,roubo,norte,nao_informado,desconhecida,via_publica,externo,cluster1
0.4375,furto,norte,nao_informado,desconhecida,via_publica,externo,cluster1
0.4375,consumo_de_entorpecentes,leste,nao_informado,desconhecida,via_publica,externo,cluster18
0.4375,roubo,sul,nao_informado,desconhecida,via_publica,externo,cluster1
0.4375,roubo,leste,nao_informado,desconhecida,via_publica,externo,cluster15
0.4375,desordem,sul,nao_informado,desconhecida,via_publica,externo,cluster16
0.4375,ocorrencia_de_trânsito,leste,nao_informado,desconhecida,via_publica,externo,cluster1
0.4375,desordem,sul,nao_informado,desconhecida,via_publica,externo,cluster16
0.4375,roubo,leste,nao_informado,desconhecida,via_publica,externo,cluster15
0.4375,desordem,leste,nao_informado,desconhecida,via_publica,externo,cluster14
0.4375,roubo,leste,nao_informado,desconhecida,via_publica,externo,cluster15
0.4375,furto,leste,nao_informado,desconhecida,via_publica,externo,cluster1
0.4375,roubo,leste,nao_informado,desconhecida,via_publica,externo,cluster15
0.4375,ameaca,oeste,nao_informado,desconhecida,via_publica,externo,cluster1
0.4375,ameaca,oeste,nao_informado,desconhecida,estadual,externo,cluster1
0.4375,lesao_corporal,leste,nao_informado,desconhecida,via_publica,externo,cluster1
0.4375,roubo,leste,nao_informado,desconhecida,via_publica,externo,cluster15
0.4375,consumo_de_entorpecentes,oeste,nao_informado,desconhecida,estadual,externo,cluster1
0.4375,solicitacao_de_policiamento,oeste,nao_informado,desconhecida,estadual,externo,cluster1
0.4375,roubo,leste,nao_informado,desconhecida,via_publica,externo,cluster15
0.4375,ameaca,leste,nao_informado,desconhecida,via_publica,externo,cluster1
0.4375,apoio_policial,leste,nao_informado,desconhecida,via_publica,externo,cluster1
0.4375,consumo_de_entorpecentes,leste,nao_informado,desconhecida,via_publica,externo,cluster18
